<?xml version="1.0" encoding="utf-8"?>
<!-- Generator: Adobe Illustrator 16.0.4, SVG Export Plug-In . SVG Version: 6.00 Build 0)  -->
<!DOCTYPE svg PUBLIC "-//W3C//DTD SVG 1.1//EN" "http://www.w3.org/Graphics/SVG/1.1/DTD/svg11.dtd">
<svg version="1.1" id="Layer_1" xmlns="http://www.w3.org/2000/svg" xmlns:xlink="http://www.w3.org/1999/xlink" x="0px" y="0px"
	 width="23px" height="16px" viewBox="382.914 229.859 23 16" enable-background="new 382.914 229.859 23 16" xml:space="preserve">
<rect x="382.915" y="229.859" fill="#FFFFFF" width="23" height="16"/>
<g id="Layer_3">
</g>
<g id="Flag">
</g>
<g id="Sidebar">
	<g>
		<g>
			<rect x="382.914" y="239.706" fill="#AB0635" width="23" height="1.231"/>
		</g>
		<g>
			<rect x="382.914" y="242.167" fill="#AB0635" width="23" height="1.231"/>
		</g>
		<g>
			<rect x="382.914" y="244.628" fill="#AB0635" width="23" height="1.231"/>
		</g>
		<g>
			<rect x="395.074" y="229.86" fill="#AB0635" width="10.841" height="1.231"/>
		</g>
		<g>
			<rect x="395.074" y="232.322" fill="#AB0635" width="10.841" height="1.23"/>
		</g>
		<g>
			<rect x="395.074" y="234.783" fill="#AB0635" width="10.841" height="1.231"/>
		</g>
		<g>
			<rect x="395.074" y="237.244" fill="#AB0635" width="10.841" height="1.231"/>
		</g>
		<g>
			<rect x="382.914" y="229.86" fill="#002D62" width="12.159" height="8.615"/>
		</g>
		<g>
			<g>
				<g>
					<polygon fill="#FFFFFF" points="383.479,230.923 383.578,230.62 383.319,230.432 383.639,230.432 383.738,230.129 
						383.836,230.432 384.155,230.432 383.897,230.62 383.996,230.923 383.738,230.736 					"/>
				</g>
				<g>
					<polygon fill="#FFFFFF" points="384.53,231.83 384.629,231.526 384.371,231.339 384.69,231.339 384.789,231.035 
						384.887,231.339 385.207,231.339 384.948,231.526 385.047,231.83 384.789,231.643 					"/>
				</g>
				<g>
					<polygon fill="#FFFFFF" points="385.582,230.923 385.68,230.62 385.422,230.432 385.741,230.432 385.84,230.129 
						385.938,230.432 386.258,230.432 386,230.62 386.098,230.923 385.84,230.736 					"/>
				</g>
				<g>
					<polygon fill="#FFFFFF" points="386.633,231.83 386.731,231.526 386.473,231.339 386.792,231.339 386.891,231.035 
						386.99,231.339 387.309,231.339 387.051,231.526 387.149,231.83 386.891,231.643 					"/>
				</g>
				<g>
					<polygon fill="#FFFFFF" points="387.684,230.923 387.783,230.62 387.525,230.432 387.844,230.432 387.942,230.129 
						388.042,230.432 388.36,230.432 388.102,230.62 388.201,230.923 387.942,230.736 					"/>
				</g>
				<g>
					<polygon fill="#FFFFFF" points="388.735,231.83 388.834,231.526 388.576,231.339 388.895,231.339 388.994,231.035 
						389.093,231.339 389.412,231.339 389.153,231.526 389.252,231.83 388.994,231.643 					"/>
				</g>
				<g>
					<polygon fill="#FFFFFF" points="389.787,230.923 389.885,230.62 389.627,230.432 389.946,230.432 390.045,230.129 
						390.143,230.432 390.463,230.432 390.205,230.62 390.303,230.923 390.045,230.736 					"/>
				</g>
				<g>
					<polygon fill="#FFFFFF" points="390.838,231.83 390.937,231.526 390.679,231.339 390.998,231.339 391.096,231.035 
						391.195,231.339 391.514,231.339 391.256,231.526 391.354,231.83 391.096,231.643 					"/>
				</g>
				<g>
					<polygon fill="#FFFFFF" points="391.89,230.923 391.988,230.62 391.729,230.432 392.049,230.432 392.147,230.129 
						392.246,230.432 392.565,230.432 392.307,230.62 392.406,230.923 392.147,230.736 					"/>
				</g>
				<g>
					<polygon fill="#FFFFFF" points="392.941,231.83 393.039,231.526 392.781,231.339 393.1,231.339 393.199,231.035 
						393.297,231.339 393.616,231.339 393.358,231.526 393.457,231.83 393.199,231.643 					"/>
				</g>
				<g>
					<polygon fill="#FFFFFF" points="393.992,230.923 394.09,230.62 393.832,230.432 394.151,230.432 394.25,230.129 
						394.349,230.432 394.667,230.432 394.41,230.62 394.508,230.923 394.25,230.736 					"/>
				</g>
			</g>
			<g>
				<g>
					<polygon fill="#FFFFFF" points="383.479,232.74 383.578,232.437 383.319,232.249 383.639,232.249 383.738,231.945 
						383.836,232.249 384.155,232.249 383.897,232.437 383.996,232.74 383.738,232.552 					"/>
				</g>
				<g>
					<polygon fill="#FFFFFF" points="384.53,233.646 384.629,233.343 384.371,233.156 384.69,233.156 384.789,232.852 
						384.887,233.156 385.207,233.156 384.948,233.343 385.047,233.646 384.789,233.459 					"/>
				</g>
				<g>
					<polygon fill="#FFFFFF" points="385.582,232.74 385.68,232.437 385.422,232.249 385.741,232.249 385.84,231.945 
						385.938,232.249 386.258,232.249 386,232.437 386.098,232.74 385.84,232.552 					"/>
				</g>
				<g>
					<polygon fill="#FFFFFF" points="386.633,233.646 386.731,233.343 386.473,233.156 386.792,233.156 386.891,232.852 
						386.99,233.156 387.309,233.156 387.051,233.343 387.149,233.646 386.891,233.459 					"/>
				</g>
				<g>
					<polygon fill="#FFFFFF" points="387.684,232.74 387.783,232.437 387.525,232.249 387.844,232.249 387.942,231.945 
						388.042,232.249 388.36,232.249 388.102,232.437 388.201,232.74 387.942,232.552 					"/>
				</g>
				<g>
					<polygon fill="#FFFFFF" points="388.735,233.646 388.834,233.343 388.576,233.156 388.895,233.156 388.994,232.852 
						389.093,233.156 389.412,233.156 389.153,233.343 389.252,233.646 388.994,233.459 					"/>
				</g>
				<g>
					<polygon fill="#FFFFFF" points="389.787,232.74 389.885,232.437 389.627,232.249 389.946,232.249 390.045,231.945 
						390.143,232.249 390.463,232.249 390.205,232.437 390.303,232.74 390.045,232.552 					"/>
				</g>
				<g>
					<polygon fill="#FFFFFF" points="390.838,233.646 390.937,233.343 390.679,233.156 390.998,233.156 391.096,232.852 
						391.195,233.156 391.514,233.156 391.256,233.343 391.354,233.646 391.096,233.459 					"/>
				</g>
				<g>
					<polygon fill="#FFFFFF" points="391.89,232.74 391.988,232.437 391.729,232.249 392.049,232.249 392.147,231.945 
						392.246,232.249 392.565,232.249 392.307,232.437 392.406,232.74 392.147,232.552 					"/>
				</g>
				<g>
					<polygon fill="#FFFFFF" points="392.941,233.646 393.039,233.343 392.781,233.156 393.1,233.156 393.199,232.852 
						393.297,233.156 393.616,233.156 393.358,233.343 393.457,233.646 393.199,233.459 					"/>
				</g>
				<g>
					<polygon fill="#FFFFFF" points="393.992,232.74 394.09,232.437 393.832,232.249 394.151,232.249 394.25,231.945 
						394.349,232.249 394.667,232.249 394.41,232.437 394.508,232.74 394.25,232.552 					"/>
				</g>
			</g>
			<g>
				<g>
					<polygon fill="#FFFFFF" points="383.479,234.561 383.578,234.257 383.319,234.07 383.639,234.07 383.738,233.766 
						383.836,234.07 384.155,234.07 383.897,234.257 383.996,234.561 383.738,234.373 					"/>
				</g>
				<g>
					<polygon fill="#FFFFFF" points="384.53,235.468 384.629,235.164 384.371,234.976 384.69,234.976 384.789,234.672 
						384.887,234.976 385.207,234.976 384.948,235.164 385.047,235.468 384.789,235.28 					"/>
				</g>
				<g>
					<polygon fill="#FFFFFF" points="385.582,234.561 385.68,234.257 385.422,234.07 385.741,234.07 385.84,233.766 385.938,234.07 
						386.258,234.07 386,234.257 386.098,234.561 385.84,234.373 					"/>
				</g>
				<g>
					<polygon fill="#FFFFFF" points="386.633,235.468 386.731,235.164 386.473,234.976 386.792,234.976 386.891,234.672 
						386.99,234.976 387.309,234.976 387.051,235.164 387.149,235.468 386.891,235.28 					"/>
				</g>
				<g>
					<polygon fill="#FFFFFF" points="387.684,234.561 387.783,234.257 387.525,234.07 387.844,234.07 387.942,233.766 
						388.042,234.07 388.36,234.07 388.102,234.257 388.201,234.561 387.942,234.373 					"/>
				</g>
				<g>
					<polygon fill="#FFFFFF" points="388.735,235.468 388.834,235.164 388.576,234.976 388.895,234.976 388.994,234.672 
						389.093,234.976 389.412,234.976 389.153,235.164 389.252,235.468 388.994,235.28 					"/>
				</g>
				<g>
					<polygon fill="#FFFFFF" points="389.787,234.561 389.885,234.257 389.627,234.07 389.946,234.07 390.045,233.766 
						390.143,234.07 390.463,234.07 390.205,234.257 390.303,234.561 390.045,234.373 					"/>
				</g>
				<g>
					<polygon fill="#FFFFFF" points="390.838,235.468 390.937,235.164 390.679,234.976 390.998,234.976 391.096,234.672 
						391.195,234.976 391.514,234.976 391.256,235.164 391.354,235.468 391.096,235.28 					"/>
				</g>
				<g>
					<polygon fill="#FFFFFF" points="391.89,234.561 391.988,234.257 391.729,234.07 392.049,234.07 392.147,233.766 
						392.246,234.07 392.565,234.07 392.307,234.257 392.406,234.561 392.147,234.373 					"/>
				</g>
				<g>
					<polygon fill="#FFFFFF" points="392.941,235.468 393.039,235.164 392.781,234.976 393.1,234.976 393.199,234.672 
						393.297,234.976 393.616,234.976 393.358,235.164 393.457,235.468 393.199,235.28 					"/>
				</g>
				<g>
					<polygon fill="#FFFFFF" points="393.992,234.561 394.09,234.257 393.832,234.07 394.151,234.07 394.25,233.766 394.349,234.07 
						394.667,234.07 394.41,234.257 394.508,234.561 394.25,234.373 					"/>
				</g>
			</g>
			<g>
				<g>
					<polygon fill="#FFFFFF" points="383.479,236.382 383.578,236.078 383.319,235.89 383.639,235.89 383.738,235.587 
						383.836,235.89 384.155,235.89 383.897,236.078 383.996,236.382 383.738,236.194 					"/>
				</g>
				<g>
					<polygon fill="#FFFFFF" points="384.53,237.288 384.629,236.984 384.371,236.797 384.69,236.797 384.789,236.493 
						384.887,236.797 385.207,236.797 384.948,236.984 385.047,237.288 384.789,237.101 					"/>
				</g>
				<g>
					<polygon fill="#FFFFFF" points="385.582,236.382 385.68,236.078 385.422,235.89 385.741,235.89 385.84,235.587 385.938,235.89 
						386.258,235.89 386,236.078 386.098,236.382 385.84,236.194 					"/>
				</g>
				<g>
					<polygon fill="#FFFFFF" points="386.633,237.288 386.731,236.984 386.473,236.797 386.792,236.797 386.891,236.493 
						386.99,236.797 387.309,236.797 387.051,236.984 387.149,237.288 386.891,237.101 					"/>
				</g>
				<g>
					<polygon fill="#FFFFFF" points="387.684,236.382 387.783,236.078 387.525,235.89 387.844,235.89 387.942,235.587 
						388.042,235.89 388.36,235.89 388.102,236.078 388.201,236.382 387.942,236.194 					"/>
				</g>
				<g>
					<polygon fill="#FFFFFF" points="388.735,237.288 388.834,236.984 388.576,236.797 388.895,236.797 388.994,236.493 
						389.093,236.797 389.412,236.797 389.153,236.984 389.252,237.288 388.994,237.101 					"/>
				</g>
				<g>
					<polygon fill="#FFFFFF" points="389.787,236.382 389.885,236.078 389.627,235.89 389.946,235.89 390.045,235.587 
						390.143,235.89 390.463,235.89 390.205,236.078 390.303,236.382 390.045,236.194 					"/>
				</g>
				<g>
					<polygon fill="#FFFFFF" points="390.838,237.288 390.937,236.984 390.679,236.797 390.998,236.797 391.096,236.493 
						391.195,236.797 391.514,236.797 391.256,236.984 391.354,237.288 391.096,237.101 					"/>
				</g>
				<g>
					<polygon fill="#FFFFFF" points="391.89,236.382 391.988,236.078 391.729,235.89 392.049,235.89 392.147,235.587 
						392.246,235.89 392.565,235.89 392.307,236.078 392.406,236.382 392.147,236.194 					"/>
				</g>
				<g>
					<polygon fill="#FFFFFF" points="392.941,237.288 393.039,236.984 392.781,236.797 393.1,236.797 393.199,236.493 
						393.297,236.797 393.616,236.797 393.358,236.984 393.457,237.288 393.199,237.101 					"/>
				</g>
				<g>
					<polygon fill="#FFFFFF" points="393.992,236.382 394.09,236.078 393.832,235.89 394.151,235.89 394.25,235.587 394.349,235.89 
						394.667,235.89 394.41,236.078 394.508,236.382 394.25,236.194 					"/>
				</g>
			</g>
			<g>
				<polygon fill="#FFFFFF" points="383.479,238.202 383.578,237.899 383.319,237.711 383.639,237.711 383.738,237.407 
					383.836,237.711 384.155,237.711 383.897,237.899 383.996,238.202 383.738,238.015 				"/>
			</g>
			<g>
				<polygon fill="#FFFFFF" points="385.582,238.202 385.68,237.899 385.422,237.711 385.741,237.711 385.84,237.407 
					385.938,237.711 386.258,237.711 386,237.899 386.098,238.202 385.84,238.015 				"/>
			</g>
			<g>
				<polygon fill="#FFFFFF" points="387.684,238.202 387.783,237.899 387.525,237.711 387.844,237.711 387.942,237.407 
					388.042,237.711 388.36,237.711 388.102,237.899 388.201,238.202 387.942,238.015 				"/>
			</g>
			<g>
				<polygon fill="#FFFFFF" points="389.787,238.202 389.885,237.899 389.627,237.711 389.946,237.711 390.045,237.407 
					390.143,237.711 390.463,237.711 390.205,237.899 390.303,238.202 390.045,238.015 				"/>
			</g>
			<g>
				<polygon fill="#FFFFFF" points="391.89,238.202 391.988,237.899 391.729,237.711 392.049,237.711 392.147,237.407 
					392.246,237.711 392.565,237.711 392.307,237.899 392.406,238.202 392.147,238.015 				"/>
			</g>
			<g>
				<polygon fill="#FFFFFF" points="393.992,238.202 394.09,237.899 393.832,237.711 394.151,237.711 394.25,237.407 
					394.349,237.711 394.667,237.711 394.41,237.899 394.508,238.202 394.25,238.015 				"/>
			</g>
		</g>
	</g>
</g>
</svg>
